examples/lab1_imul.test.IntMulAltRTL_test.test[small_pos_pos].verilator1.vcd
$version Generated by VerilatedVcd $end
$date Sat Sep 15 00:04:13 2018
 $end
$timescale  10ps $end

 $scope module TOP $end
  $var wire  1 "c clk [0:0] $end
  $var wire 64 "d req_msg [63:0] $end
  $var wire  1 "f req_rdy [0:0] $end
  $var wire  1 "g req_val [0:0] $end
  $var wire  1 "h reset [0:0] $end
  $var wire 32 "i resp_msg [31:0] $end
  $var wire  1 "j resp_rdy [0:0] $end
  $var wire  1 "k resp_val [0:0] $end
  $scope module v $end
   $var wire  1 "c clk [0:0] $end
   $var wire 64 "d req_msg [63:0] $end
   $var wire  1 "f req_rdy [0:0] $end
   $var wire  1 "g req_val [0:0] $end
   $var wire  1 "h reset [0:0] $end
   $var wire 32 "i resp_msg [31:0] $end
   $var wire  1 "j resp_rdy [0:0] $end
   $var wire  1 "k resp_val [0:0] $end
   $scope module verilog_module $end
    $var wire  1 # a_mux_sel $end
    $var wire  1 % add_mux_sel $end
    $var wire  1 "[ b_lsb $end
    $var wire  1 $ b_mux_sel $end
    $var wire 32 "\ b_value [31:0] $end
    $var wire  1 "c clk $end
    $var wire 64 "d req_msg [63:0] $end
    $var wire  1 "f req_rdy $end
    $var wire  1 "g req_val $end
    $var wire  1 & res_mux_sel $end
    $var wire  1 "h reset $end
    $var wire 32 "i resp_msg [31:0] $end
    $var wire  1 "j resp_rdy $end
    $var wire  1 "k resp_val $end
    $var wire  1 ' result_en $end
    $var wire 4096 5 str [4095:0] $end
    $scope module control $end
     $var wire  2 "q CALC [1:0] $end
     $var wire  2 "r DONE [1:0] $end
     $var wire  2 "p IDLE [1:0] $end
     $var wire  1 # a_mux_sel $end
     $var wire  1 % add_mux_sel $end
     $var wire  1 "[ b_lsb $end
     $var wire  1 $ b_mux_sel $end
     $var wire 32 "\ b_value [31:0] $end
     $var wire  1 "c clk $end
     $var wire  1 ) count_is_max $end
     $var wire  1 3 counter_clear $end
     $var wire  1 4 counter_incr $end
     $var wire  2 2 next_state [1:0] $end
     $var wire  1 "f req_rdy $end
     $var wire  1 "g req_val $end
     $var wire  1 & res_mux_sel $end
     $var wire  1 "h reset $end
     $var wire  1 "j resp_rdy $end
     $var wire  1 "k resp_val $end
     $var wire  1 ' result_en $end
     $var wire  2 ( state [1:0] $end
     $scope module counter $end
      $var wire  1 3 clear $end
      $var wire  1 "c clk $end
      $var wire  6 "] count [5:0] $end
      $var wire  1 ) count_is_max $end
      $var wire  1 "^ count_is_zero $end
      $var wire  6 0 count_next [5:0] $end
      $var wire  1 "v decrement $end
      $var wire  1 "v do_decrement $end
      $var wire  1 1 do_increment $end
      $var wire  1 4 increment $end
      $var wire 32 "t p_count_clear_value [31:0] $end
      $var wire 32 "u p_count_max_value [31:0] $end
      $var wire 32 "s p_count_nbits [31:0] $end
      $var wire  1 "h reset $end
      $scope module count_reg $end
       $var wire  1 "c clk $end
       $var wire  6 0 d [5:0] $end
       $var wire 32 "s p_nbits [31:0] $end
       $var wire 32 "t p_reset_value [31:0] $end
       $var wire  6 "] q [5:0] $end
       $var wire  1 "h reset $end
      $upscope $end
     $upscope $end
    $upscope $end
    $scope module datapath $end
     $var wire  1 # a_mux_sel $end
     $var wire 32 "l a_reg_in [31:0] $end
     $var wire 32 "_ a_reg_out [31:0] $end
     $var wire 32 . add_mux_out [31:0] $end
     $var wire  1 % add_mux_sel $end
     $var wire 32 "a adder_out [31:0] $end
     $var wire  1 "[ b_lsb $end
     $var wire  1 $ b_mux_sel $end
     $var wire 32 "m b_reg_in [31:0] $end
     $var wire 32 "\ b_reg_out [31:0] $end
     $var wire 32 "\ b_value [31:0] $end
     $var wire  1 "c clk $end
     $var wire 32 - l_shift_out [31:0] $end
     $var wire 32 , r_shift_out [31:0] $end
     $var wire 64 "d req_msg [63:0] $end
     $var wire 32 "n req_msg_a [31:0] $end
     $var wire 32 "o req_msg_b [31:0] $end
     $var wire  1 & res_mux_sel $end
     $var wire 32 + res_reg_in [31:0] $end
     $var wire 32 "` res_reg_out [31:0] $end
     $var wire  1 "h reset $end
     $var wire 32 "i resp_msg [31:0] $end
     $var wire  1 ' result_en $end
     $var wire  3 * shift_amount [2:0] $end
     $var wire  3 "b shift_sel [2:0] $end
     $scope module a_mux $end
      $var wire 32 - in0 [31:0] $end
      $var wire 32 "n in1 [31:0] $end
      $var wire 32 "l out [31:0] $end
      $var wire 32 "u p_nbits [31:0] $end
      $var wire  1 # sel $end
     $upscope $end
     $scope module a_reg $end
      $var wire  1 "c clk $end
      $var wire 32 "l d [31:0] $end
      $var wire 32 "u p_nbits [31:0] $end
      $var wire 32 "t p_reset_value [31:0] $end
      $var wire 32 "_ q [31:0] $end
      $var wire  1 "h reset $end
     $upscope $end
     $scope module add_mux $end
      $var wire 32 "a in0 [31:0] $end
      $var wire 32 "` in1 [31:0] $end
      $var wire 32 . out [31:0] $end
      $var wire 32 "u p_nbits [31:0] $end
      $var wire  1 % sel $end
     $upscope $end
     $scope module adder $end
      $var wire 32 "_ in0 [31:0] $end
      $var wire 32 "` in1 [31:0] $end
      $var wire 32 "a out [31:0] $end
      $var wire 32 "u p_nbits [31:0] $end
     $upscope $end
     $scope module b_mux $end
      $var wire 32 , in0 [31:0] $end
      $var wire 32 "o in1 [31:0] $end
      $var wire 32 "m out [31:0] $end
      $var wire 32 "u p_nbits [31:0] $end
      $var wire  1 $ sel $end
     $upscope $end
     $scope module b_reg $end
      $var wire  1 "c clk $end
      $var wire 32 "m d [31:0] $end
      $var wire 32 "u p_nbits [31:0] $end
      $var wire 32 "t p_reset_value [31:0] $end
      $var wire 32 "\ q [31:0] $end
      $var wire  1 "h reset $end
     $upscope $end
     $scope module left_shift $end
      $var wire 32 "_ in [31:0] $end
      $var wire 32 - out [31:0] $end
      $var wire 32 "u p_nbits [31:0] $end
      $var wire 32 "w p_shamt_nbits [31:0] $end
      $var wire  3 * shamt [2:0] $end
     $upscope $end
     $scope module res_mux $end
      $var wire 32 . in0 [31:0] $end
      $var wire 32 "t in1 [31:0] $end
      $var wire 32 + out [31:0] $end
      $var wire 32 "u p_nbits [31:0] $end
      $var wire  1 & sel $end
     $upscope $end
     $scope module res_reg $end
      $var wire  1 "c clk $end
      $var wire 32 + d [31:0] $end
      $var wire  1 ' en $end
      $var wire 32 "u p_nbits [31:0] $end
      $var wire 32 "t p_reset_value [31:0] $end
      $var wire 32 "` q [31:0] $end
      $var wire  1 "h reset $end
     $upscope $end
     $scope module right_shift $end
      $var wire 32 "\ in [31:0] $end
      $var wire 32 , out [31:0] $end
      $var wire 32 "u p_nbits [31:0] $end
      $var wire 32 "w p_shamt_nbits [31:0] $end
      $var wire  3 * shamt [2:0] $end
     $upscope $end
     $scope module shift_mux $end
      $var wire  3 "x in0 [2:0] $end
      $var wire  3 "y in1 [2:0] $end
      $var wire  3 "z in2 [2:0] $end
      $var wire  3 "y in3 [2:0] $end
      $var wire  3 "{ in4 [2:0] $end
      $var wire  3 "y in5 [2:0] $end
      $var wire  3 "z in6 [2:0] $end
      $var wire  3 "y in7 [2:0] $end
      $var wire  3 * out [2:0] $end
      $var wire 32 "w p_nbits [31:0] $end
      $var wire  3 "b sel [2:0] $end
     $upscope $end
    $upscope $end
    $scope module vc_trace $end
     $var wire  1 "c clk $end
     $var wire 32 / cycles [31:0] $end
     $var wire 32 "t cycles_next [31:0] $end
     $var wire 32 "Y idx0 [31:0] $end
     $var wire 32 "Z idx1 [31:0] $end
     $var wire 32 "W len0 [31:0] $end
     $var wire 32 "X len1 [31:0] $end
     $var wire  4 $B level [3:0] $end
     $var wire 32 "} nbits [31:0] $end
     $var wire 32 "| nchars [31:0] $end
     $var wire  1 "h reset $end
     $var wire 4096 "~ storage [4095:0] $end
    $upscope $end
   $upscope $end
  $upscope $end
 $upscope $end
$enddefinitions $end


#0
b00 (
0)
1'
1#
1$
1&
b00000000000000000000000000000000 +
1%
b00000000000000000000000000000000 .
b00000000000000000000000000000000 -
b100 *
b00000000000000000000000000000000 ,
b00000000000000000000000000000000 /
b000000 0
01
b00 2
13
04
b0000000000000000000000000000000000000000000000000000000000000000000000000000000000000000000000000000000000000000000000000000000000000000000000000000000000000000000000000000000000000000000000000000000000000000000000000000000000000000000000000000000000000000000000000000000000000000000000000000000000000000000000000000000000000000000000000000000000000000000000000000000000000000000000000000000000000000000000000000000000000000000000000000000000000000000000000000000000000000000000000000000000000000000000000000000000000000000000000000000000000000000000000000000000000000000000000000000000000000000000000000000000000000000000000000000000000000000000000000000000000000000000000000000000000000000000000000000000000000000000000000000000000000000000000000000000000000000000000000000000000000000000000000000000000000000000000000000000000000000000000000000000000000000000000000000000000000000000000000000000000000000000000000000000000000000000000000000000000000000000000000000000000000000000000000000000000000000000000000000000000000000000000000000000000000000000000000000000000000000000000000000000000000000000000000000000000000000000000000000000000000000000000000000000000000000000000000000000000000000000000000000000000000000000000000000000000000000000000000000000000000000000000000000000000000000000000000000000000000000000000000000000000000000000000000000000000000000000000000000000000000000000000000000000000000000000000000000000000000000000000000000000000000000000000000000000000000000000000000000000000000000000000000000000000000000000000000000000000000000000000000000000000000000000000000000000000000000000000000000000000000000000000000000000000000000000000000000000000000000000000000000000000000000000000000000000000000000000000000000000000000000000000000000000000000000000000000000000000000000000000000000000000000000000000000000000000000000000000000000000000000000000000000000000000000000000000000000000000000000000000000000000000000000000000000000000000000000000000000000000000000000000000000000000000000000000000000000000000000000000000000000000000000000000000000000000000000000000000000000000000000000000000000000000000000000000000000000000000000000000000000000000000000000000000000000000000000000000000000000000000000000000000000000000000000000000000000000000000000000000000000000000000000000000000000000000000000000000000000000000000000000000000000000000000000000000000000000000000000000000000000000000000000000000000000000000000000000000000000000000000000000000000000000000000000000000000000000000000000000000000000000000000000000000000000000000000000000000000000000000000000000000000000000000000000000000000000000000000000000000000000000000000000000000000000000000000000000000000000000000000000000000000000000000000000000000000000000000000000000000000000000000000000000000000000000000000000000000000000000000000000000000000000000000000000000000000000000000000000000000000000000000000000000000000000000000000000000000000000000000000000000000000000000000000000000000000000000000000000000000000000000000000000000000000000000000000000000000000000000000000000000000000000000000000000000000000000000000000000000000000000000000000000000000000000000000000000000000000000000000000000000000000000000000000000000000000000000000000000000000000000000000000000000000000000000000000000000000000000000000000000000000000000000000000000000000000000000000000000000000000000000000000000000000000000000000000000000000000000000000000000000000000000000000000000000000000000000000000000000000000000000000000000000000000000000000000000000000000000000000000000000000000000000000000000000000000000000000000000000000000000000000000000000000000000000000000000000000000000000000000000000000000000000000000000000000000000000000000000000000000000000000000000000000000000000000000000000000000000000000000000000000000000000000000000000000000000000000000000000000000000000000000000000000000000000000000000000000000000000000000000000000000000000000000000000000000000000000000000000000000000000000000000000000000000000000000000000000000000000000000000000000000000000000000000000000000000000000000000000000000000000000000000 5
b00000000000000000000000000000000 "W
b00000000000000000000000000000000 "X
b00000000000000000000000000000000 "Y
b00000000000000000000000000000000 "Z
b000000 "]
1"^
0"[
b000 "b
b00000000000000000000000000000000 "\
b00000000000000000000000000000000 "_
b00000000000000000000000000000000 "`
b00000000000000000000000000000000 "a
0"j
0"g
1"f
0"k
b0000000000000000000000000000000000000000000000000000000000000000 "d
b00000000000000000000000000000000 "i
b00000000000000000000000000000000 "n
b00000000000000000000000000000000 "o
b00000000000000000000000000000000 "l
b00000000000000000000000000000000 "m
0"c
1"h
b00 "p
b01 "q
b10 "r
b00000000000000000000000000000110 "s
0"v
b100 "x
b010 "z
b011 "{
b001 "y
b00000000000000000000000000000011 "w
b00000000000000000000000000100000 "u
b00000000000000000000001000000000 "|
b00000000000000000001000000000000 "}
b0000000000000000000000000000000000000000000000000000000000000000000000000000000000000000000000000000000000000000000000000000000000000000000000000000000000000000000000000000000000000000000000000000000000000000000000000000000000000000000000000000000000000000000000000000000000000000000000000000000000000000000000000000000000000000000000000000000000000000000000000000000000000000000000000000000000000000000000000000000000000000000000000000000000000000000000000000000000000000000000000000000000000000000000000000000000000000000000000000000000000000000000000000000000000000000000000000000000000000000000000000000000000000000000000000000000000000000000000000000000000000000000000000000000000000000000000000000000000000000000000000000000000000000000000000000000000000000000000000000000000000000000000000000000000000000000000000000000000000000000000000000000000000000000000000000000000000000000000000000000000000000000000000000000000000000000000000000000000000000000000000000000000000000000000000000000000000000000000000000000000000000000000000000000000000000000000000000000000000000000000000000000000000000000000000000000000000000000000000000000000000000000000000000000000000000000000000000000000000000000000000000000000000000000000000000000000000000000000000000000000000000000000000000000000000000000000000000000000000000000000000000000000000000000000000000000000000000000000000000000000000000000000000000000000000000000000000000000000000000000000000000000000000000000000000000000000000000000000000000000000000000000000000000000000000000000000000000000000000000000000000000000000000000000000000000000000000000000000000000000000000000000000000000000000000000000000000000000000000000000000000000000000000000000000000000000000000000000000000000000000000000000000000000000000000000000000000000000000000000000000000000000000000000000000000000000000000000000000000000000000000000000000000000000000000000000000000000000000000000000000000000000000000000000000000000000000000000000000000000000000000000000000000000000000000000000000000000000000000000000000000000000000000000000000000000000000000000000000000000000000000000000000000000000000000000000000000000000000000000000000000000000000000000000000000000000000000000000000000000000000000000000000000000000000000000000000000000000000000000000000000000000000000000000000000000000000000000000000000000000000000000000000000000000000000000000000000000000000000000000000000000000000000000000000000000000000000000000000000000000000000000000000000000000000000000000000000000000000000000000000000000000000000000000000000000000000000000000000000000000000000000000000000000000000000000000000000000000000000000000000000000000000000000000000000000000000000000000000000000000000000000000000000000000000000000000000000000000000000000000000000000000000000000000000000000000000000000000000000000000000000000000000000000000000000000000000000000000000000000000000000000000000000000000000000000000000000000000000000000000000000000000000000000000000000000000000000000000000000000000000000000000000000000000000000000000000000000000000000000000000000000000000000000000000000000000000000000000000000000000000000000000000000000000000000000000000000000000000000000000000000000000000000000000000000000000000000000000000000000000000000000000000000000000000000000000000000000000000000000000000000000000000000000000000000000000000000000000000000000000000000000000000000000000000000000000000000000000000000000000000000000000000000000000000000000000000000000000000000000000000000000000000000000000000000000000000000000000000000000000000000000000000000000000000000000000000000000000000000000000000000000000000000000000000000000000000000000000000000000000000000000000000000000000000000000000000000000000000000000000000000000000000000000000000000000000000000000000000000000000000000000000000000000000000000000000000000000000000000000000000000000000000000000000000000000000000000000000000000000000000000000000000000000000000000000000000000000000000000000000000000000000000000000000000000000000000000000000000000000000000000000000000000000000000000000000000000000000000000000000000000000000000000 "~
b00000000000000000000000000000000 "t
b0001 $B
#0
#50
1"c
#50
1"j
#100
0"c
#150
1"c
#150
b0000000000000000000000000000000000000000000000000000000000000000000000000000000000000000000000000000000000000000000000000000000000000000000000000000000000000000000000000000000000000000000000000000000000000000000000000000000000000000000000000000000000000000000000000000000000000000000000000000000000000000000000000000000000000000000000000000000000000000000000000000000000000000000000000000000000000000000000000000000000000000000000000000000000000000000000000000000000000000000000000000000000000000000000000000000000000000000000000000000000000000000000000000000000000000000000000000000000000000000000000000000000000000000000000000000000000000000000000000000000000000000000000000000000000000000000000000000000000000000000000000000000000000000000000000000000000000000000000000000000000000000000000000000000000000000000000000000000000000000000000000000000000000000000000000000000000000000000000000000000000000000000000000000000000000000000000000000000000000000000000000000000000000000000000000000000000000000000000000000000000000000000000000000000000000000000000000000000000000000000000000000000000000000000000000000000000000000000000000000000000000000000000000000000000000000000000000000000000000000000000000000000000000000000000000000000000000000000000000000000000000000000000000000000000000000000000000000000000000000000000000000000000000000000000000000000000000000000000000000000000000000000000000000000000000000000000000000000000000000000000000000000000000000000000000000000000000000000000000000000000000000000000000000000000000000000000000000000000000000000000000000000000000000000000000000000000000000000000000000000000000000000000000000000000000000000000000000000000000000000000000000000000000000000000000000000000000000000000000000000000000000000000000000000000000000000000000000000000000000000000000000000000000000000000000000000000000000000000000000000000000000000000000000000000000000000000000000000000000000000000000000000000000000000000000000000000000000000000000000000000000000000000000000000000000000000000000000000000000000000000000000000000000000000000000000000000000000000000000000000000000000000000000000000000000000000000000000000000000000000000000000000000000000000000000000000000000000000000000000000000000000000000000000000000000000000000000000000000000000000000000000000000000000000000000000000000000000000000000000000000000000000000000000000000000000000000000000000000000000000000000000000000000000000000000000000000000000000000000000000000000000000000000000000000000000000000000000000000000000000000000000000000000000000000000000000000000000000000000000000000000000000000000000000000000000000000000000000000000000000000000000000000000000000000000000000000000000000000000000000000000000000000000000000000000000000000000000000000000000000000000000000000000000000000000000000000000000000000000000000000000000000000000000000000000000000000000000000000000000000000000000000000000000000000000000000000000000000000000000000000000000000000000000000000000000000000000000000000000000000000000000000000000000000000000000000000000000000000000000000000000000000000000000000000000000000000000000000000000000000000000000000000000000000000000000000000000000000000000000000000000000000000000000000000000000000000000000000000000000000000000000000000000000000000000000000000000000000000000000000000000000000000000000000000000000000000000000000000000000000000000000000000000000000000000000000000000000000000000000000000000000000000000000000000000000000000000000000000000000000000000000000000000000000000000000000000000000000000000000000000000000000000000000000000000000000000000000000000000000000000000000000000000000000000000000000000000000000000000000000000000000000000000000000000000000000000000000000000000000000000000000000000000000000000000000000000000000000000000000000000000000000000000000000000000000000000000000000000000000000000000000000000000000000000000000000000000000000000000000000000000000000000000000000000000000000000000000000000000000000000000000000000000000000000000000000000000000000000000000000000000000000000011000000110000001100000011000000110000001100000011000000110000 5
b00000000000000000000000000000001 "W
b00000000000000000000000000001000 "X
b00000000000000000000000111100101 "Y
b00000000000000000000000000001000 "Z
0"h
#200
0"c
#250
1"c
#300
0"c
#350
1"c
#350
b0000000000000000000000000000001000000000000000000000000000000011 "d
b00000000000000000000000000000011 "n
b00000000000000000000000000000010 "o
b00000000000000000000000000000011 "l
b00000000000000000000000000000010 "m
#400
0"c
#450
b00000000000000000000000000000110 -
b001 *
b00000000000000000000000000000001 ,
b001 "b
b00000000000000000000000000000010 "\
b00000000000000000000000000000011 "_
b00000000000000000000000000000011 "a
1"c
#500
0"c
#550
1"c
#600
0"c
#650
1"c
#650
b01 2
1"g
#700
0"c
#750
b01 (
0#
0$
0&
0"f
b00000000000000000000000000000110 "l
b00000000000000000000000000000001 "m
1"c
#750
0"g
#800
0"c
#850
b00000000000000000000000000000110 +
0%
b00000000000000000000000000000110 .
b00000000000000000000000001100000 -
b100 *
b00000000000000000000000000000000 ,
1"[
b000 "b
b00000000000000000000000000000001 "\
b00000000000000000000000000000110 "_
b00000000000000000000000000000110 "a
b00000000000000000000000001100000 "l
b00000000000000000000000000000000 "m
1"c
#850
b0000000000000000000000000000010000000000000000000000000000000101 "d
b00000000000000000000000000000101 "n
b00000000000000000000000000000100 "o
#900
0"c
#950
1%
b00000000000000000000011000000000 -
b10 2
0"[
b00000000000000000000000000000000 "\
b00000000000000000000000001100000 "_
b00000000000000000000000000000110 "`
b00000000000000000000000001100110 "a
b00000000000000000000000000000110 "i
b00000000000000000000011000000000 "l
1"c
#1000
b0000000000000000000000000000000000000000000000000000000000000000000000000000000000000000000000000000000000000000000000000000000000000000000000000000000000000000000000000000000000000000000000000000000000000000000000000000000000000000000000000000000000000000000000000000000000000000000000000000000000000000000000000000000000000000000000000000000000000000000000000000000000000000000000000000000000000000000000000000000000000000000000000000000000000000000000000000000000000000000000000000000000000000000000000000000000000000000000000000000000000000000000000000000000000000000000000000000000000000000000000000000000000000000000000000000000000000000000000000000000000000000000000000000000000000000000000000000000000000000000000000000000000000000000000000000000000000000000000000000000000000000000000000000000000000000000000000000000000000000000000000000000000000000000000000000000000000000000000000000000000000000000000000000000000000000000000000000000000000000000000000000000000000000000000000000000000000000000000000000000000000000000000000000000000000000000000000000000000000000000000000000000000000000000000000000000000000000000000000000000000000000000000000000000000000000000000000000000000000000000000000000000000000000000000000000000000000000000000000000000000000000000000000000000000000000000000000000000000000000000000000000000000000000000000000000000000000000000000000000000000000000000000000000000000000000000000000000000000000000000000000000000000000000000000000000000000000000000000000000000000000000000000000000000000000000000000000000000000000000000000000000000000000000000000000000000000000000000000000000000000000000000000000000000000000000000000000000000000000000000000000000000000000000000000000000000000000000000000000000000000000000000000000000000000000000000000000000000000000000000000000000000000000000000000000000000000000000000000000000000000000000000000000000000000000000000000000000000000000000000000000000000000000000000000000000000000000000000000000000000000000000000000000000000000000000000000000000000000000000000000000000000000000000000000000000000000000000000000000000000000000000000000000000000000000000000000000000000000000000000000000000000000000000000000000000000000000000000000000000000000000000000000000000000000000000000000000000000000000000000000000000000000000000000000000000000000000000000000000000000000000000000000000000000000000000000000000000000000000000000000000000000000000000000000000000000000000000000000000000000000000000000000000000000000000000000000000000000000000000000000000000000000000000000000000000000000000000000000000000000000000000000000000000000000000000000000000000000000000000000000000000000000000000000000000000000000000000000000000000000000000000000000000000000000000000000000000000000000000000000000000000000000000000000000000000000000000000000000000000000000000000000000000000000000000000000000000000000000000000000000000000000000000000000000000000000000000000000000000000000000000000000000000000000000000000000000000000000000000000000000000000000000000000000000000000000000000000000000000000000000000000000000000000000000000000000000000000000000000000000000000000000000000000000000000000000000000000000000000000000000000000000000000000000000000000000000000000000000000000000000000000000000000000000000000000000000000000000000000000000000000000000000000000000000000000000000000000000000000000000000000000000000000000000000000000000000000000000000000000000000000000000000000000000000000000000000000000000000000000000000000000000000000000000000000000000000000000000000000000000000000000000000000000000000000000000000000000000000000000000000000000000000000000000000000000000000000000000000000000000000000000000000000000000000000000000000000000000000000000000000000000000000000000000000000000000000000000000000000000000000000000000000000000000000000000000000000000000000000000000000000000000000000000000000000000000000000000000000000000000000000000000000000000000000000000000000000000000000000000000000000000000000000000000000000000000000000000000000000000000000000000000000011000000110000001100000011000000110000001100000011000000110110 5
0"c
#1050
b10 (
0'
1#
1$
1&
b00000000000000000000000000000000 +
b00000000000000000110000000000000 -
b00 2
b00000000000000000000011000000000 "_
b00000000000000000000011000000110 "a
1"k
b00000000000000000000000000000101 "l
b00000000000000000000000000000100 "m
1"c
#1100
b00000000000000000000000000001000 "W
b11111111111111111111111111111111 "Z
0"c
#1150
b00 (
1'
b00000000000000000000000000010100 -
b010 *
b00000000000000000000000000000001 ,
b010 "b
b00000000000000000000000000000100 "\
b00000000000000000000000000000101 "_
b00000000000000000000000000001011 "a
1"f
0"k
1"c
#1150
b01 2
0"j
1"g
#1200
b00000000000000000000000000000001 "W
b00000000000000000000000000000111 "Z
0"c
#1250
b01 (
0#
0$
0&
b00000000000000000000000000000000 .
b00000000000000000000000000000000 "`
b00000000000000000000000000000101 "a
0"f
b00000000000000000000000000000000 "i
b00000000000000000000000000010100 "l
b00000000000000000000000000000001 "m
1"c
#1250
0"g
#1300
b0000000000000000000000000000000000000000000000000000000000000000000000000000000000000000000000000000000000000000000000000000000000000000000000000000000000000000000000000000000000000000000000000000000000000000000000000000000000000000000000000000000000000000000000000000000000000000000000000000000000000000000000000000000000000000000000000000000000000000000000000000000000000000000000000000000000000000000000000000000000000000000000000000000000000000000000000000000000000000000000000000000000000000000000000000000000000000000000000000000000000000000000000000000000000000000000000000000000000000000000000000000000000000000000000000000000000000000000000000000000000000000000000000000000000000000000000000000000000000000000000000000000000000000000000000000000000000000000000000000000000000000000000000000000000000000000000000000000000000000000000000000000000000000000000000000000000000000000000000000000000000000000000000000000000000000000000000000000000000000000000000000000000000000000000000000000000000000000000000000000000000000000000000000000000000000000000000000000000000000000000000000000000000000000000000000000000000000000000000000000000000000000000000000000000000000000000000000000000000000000000000000000000000000000000000000000000000000000000000000000000000000000000000000000000000000000000000000000000000000000000000000000000000000000000000000000000000000000000000000000000000000000000000000000000000000000000000000000000000000000000000000000000000000000000000000000000000000000000000000000000000000000000000000000000000000000000000000000000000000000000000000000000000000000000000000000000000000000000000000000000000000000000000000000000000000000000000000000000000000000000000000000000000000000000000000000000000000000000000000000000000000000000000000000000000000000000000000000000000000000000000000000000000000000000000000000000000000000000000000000000000000000000000000000000000000000000000000000000000000000000000000000000000000000000000000000000000000000000000000000000000000000000000000000000000000000000000000000000000000000000000000000000000000000000000000000000000000000000000000000000000000000000000000000000000000000000000000000000000000000000000000000000000000000000000000000000000000000000000000000000000000000000000000000000000000000000000000000000000000000000000000000000000000000000000000000000000000000000000000000000000000000000000000000000000000000000000000000000000000000000000000000000000000000000000000000000000000000000000000000000000000000000000000000000000000000000000000000000000000000000000000000000000000000000000000000000000000000000000000000000000000000000000000000000000000000000000000000000000000000000000000000000000000000000000000000000000000000000000000000000000000000000000000000000000000000000000000000000000000000000000000000000000000000000000000000000000000000000000000000000000000000000000000000000000000000000000000000000000000000000000000000000000000000000000000000000000000000000000000000000000000000000000000000000000000000000000000000000000000000000000000000000000000000000000000000000000000000000000000000000000000000000000000000000000000000000000000000000000000000000000000000000000000000000000000000000000000000000000000000000000000000000000000000000000000000000000000000000000000000000000000000000000000000000000000000000000000000000000000000000000000000000000000000000000000000000000000000000000000000000000000000000000000000000000000000000000000000000000000000000000000000000000000000000000000000000000000000000000000000000000000000000000000000000000000000000000000000000000000000000000000000000000000000000000000000000000000000000000000000000000000000000000000000000000000000000000000000000000000000000000000000000000000000000000000000000000000000000000000000000000000000000000000000000000000000000000000000000000000000000000000000000000000000000000000000000000000000000000000000000000000000000000000000000000000000000000000000000000000000000000000000000000000000000000000000000000000000000000000000000000000000000000000000000000000000000000000000000000000000000000000000000011000000110000001100000011000000110000001100000011000000110000 5
0"c
#1350
b00000000000000000000000000010100 +
0%
b00000000000000000000000000010100 .
b00000000000000000000000101000000 -
b100 *
b00000000000000000000000000000000 ,
1"[
b000 "b
b00000000000000000000000000000001 "\
b00000000000000000000000000010100 "_
b00000000000000000000000000010100 "a
b00000000000000000000000101000000 "l
b00000000000000000000000000000000 "m
1"c
#1350
b0000000000000000000000000000001100000000000000000000000000000100 "d
b00000000000000000000000000000100 "n
b00000000000000000000000000000011 "o
#1400
0"c
#1450
1%
b00000000000000000001010000000000 -
b10 2
0"[
b00000000000000000000000000000000 "\
b00000000000000000000000101000000 "_
b00000000000000000000000000010100 "`
b00000000000000000000000101010100 "a
b00000000000000000000000000010100 "i
b00000000000000000001010000000000 "l
1"c
#1450
1"g
#1500
b0000000000000000000000000000000000000000000000000000000000000000000000000000000000000000000000000000000000000000000000000000000000000000000000000000000000000000000000000000000000000000000000000000000000000000000000000000000000000000000000000000000000000000000000000000000000000000000000000000000000000000000000000000000000000000000000000000000000000000000000000000000000000000000000000000000000000000000000000000000000000000000000000000000000000000000000000000000000000000000000000000000000000000000000000000000000000000000000000000000000000000000000000000000000000000000000000000000000000000000000000000000000000000000000000000000000000000000000000000000000000000000000000000000000000000000000000000000000000000000000000000000000000000000000000000000000000000000000000000000000000000000000000000000000000000000000000000000000000000000000000000000000000000000000000000000000000000000000000000000000000000000000000000000000000000000000000000000000000000000000000000000000000000000000000000000000000000000000000000000000000000000000000000000000000000000000000000000000000000000000000000000000000000000000000000000000000000000000000000000000000000000000000000000000000000000000000000000000000000000000000000000000000000000000000000000000000000000000000000000000000000000000000000000000000000000000000000000000000000000000000000000000000000000000000000000000000000000000000000000000000000000000000000000000000000000000000000000000000000000000000000000000000000000000000000000000000000000000000000000000000000000000000000000000000000000000000000000000000000000000000000000000000000000000000000000000000000000000000000000000000000000000000000000000000000000000000000000000000000000000000000000000000000000000000000000000000000000000000000000000000000000000000000000000000000000000000000000000000000000000000000000000000000000000000000000000000000000000000000000000000000000000000000000000000000000000000000000000000000000000000000000000000000000000000000000000000000000000000000000000000000000000000000000000000000000000000000000000000000000000000000000000000000000000000000000000000000000000000000000000000000000000000000000000000000000000000000000000000000000000000000000000000000000000000000000000000000000000000000000000000000000000000000000000000000000000000000000000000000000000000000000000000000000000000000000000000000000000000000000000000000000000000000000000000000000000000000000000000000000000000000000000000000000000000000000000000000000000000000000000000000000000000000000000000000000000000000000000000000000000000000000000000000000000000000000000000000000000000000000000000000000000000000000000000000000000000000000000000000000000000000000000000000000000000000000000000000000000000000000000000000000000000000000000000000000000000000000000000000000000000000000000000000000000000000000000000000000000000000000000000000000000000000000000000000000000000000000000000000000000000000000000000000000000000000000000000000000000000000000000000000000000000000000000000000000000000000000000000000000000000000000000000000000000000000000000000000000000000000000000000000000000000000000000000000000000000000000000000000000000000000000000000000000000000000000000000000000000000000000000000000000000000000000000000000000000000000000000000000000000000000000000000000000000000000000000000000000000000000000000000000000000000000000000000000000000000000000000000000000000000000000000000000000000000000000000000000000000000000000000000000000000000000000000000000000000000000000000000000000000000000000000000000000000000000000000000000000000000000000000000000000000000000000000000000000000000000000000000000000000000000000000000000000000000000000000000000000000000000000000000000000000000000000000000000000000000000000000000000000000000000000000000000000000000000000000000000000000000000000000000000000000000000000000000000000000000000000000000000000000000000000000000000000000000000000000000000000000000000000000000000000000000000000000000000000000000000000000000000000000000000000000000000000000000000000000000000000000000000000000000000000000000011000000110000001100000011000000110000001100000011000100110100 5
0"c
#1550
b10 (
0'
1#
1$
1&
b00000000000000000000000000000000 +
b00000000000000010100000000000000 -
b00000000000000000001010000000000 "_
b00000000000000000001010000010100 "a
1"k
b00000000000000000000000000000100 "l
b00000000000000000000000000000011 "m
1"c
#1600
0"c
#1650
b00000000000000000000000000001000 -
b001 *
b00000000000000000000000000000001 ,
1"[
b001 "b
b00000000000000000000000000000011 "\
b00000000000000000000000000000100 "_
b00000000000000000000000000011000 "a
1"c
#1650
b00 2
1"j
#1700
b00000000000000000000000000001000 "W
b11111111111111111111111111111111 "Z
0"c
#1750
b00 (
1'
b01 2
1"f
0"k
1"c
#1750
0"j
#1800
b00000000000000000000000000000001 "W
b00000000000000000000000000000111 "Z
0"c
#1850
b01 (
0#
0$
0&
b00000000000000000000000000000100 +
0%
b00000000000000000000000000000100 .
b00000000000000000000000000000000 "`
b00000000000000000000000000000100 "a
0"f
b00000000000000000000000000000000 "i
b00000000000000000000000000001000 "l
b00000000000000000000000000000001 "m
1"c
#1850
0"g
